Basic Recipes
…
trained_rec <- prep(standardized, training = seg_train)
#> step 1 center training 
#> step 2 scale training

Now that the statistics have been estimated, the preprocessing can be applied to the training and test set:

train_data <- bake(trained_rec, newdata = seg_train)
test_data  <- bake(trained_rec, newdata = seg_test)

bake returns a tibble:

class(test_data)
#> [1] "tbl_df"     "tbl"        "data.frame"
test_data
#> # A tibble: 1,010 x 58
#>    AngleCh1 AreaCh1 AvgIntenCh1 AvgIntenCh2 AvgIntenCh3 AvgIntenCh4
#>       <dbl>   <dbl>       <dbl>       <dbl>       <dbl>       <dbl>
#>  1   1.0656  -0.647      -0.684      -1.177      -0.926     -0.9238
#>  2  -1.8040  -0.185      -0.632      -0.479      -0.809     -0.6666
#>  3  -1.0300  -0.707       1.207       3.035       0.348      1.3864
#>  4   1.6935  -0.684       0.806       2.664       0.296      0.8934
#>  5   1.8129  -0.342      -0.668      -1.172      -0.843     -0.9282
#>  6  -1.4759   0.784      -0.682      -0.628      -0.881     -0.5939
#>  7   1.2702   0.272      -0.672      -0.625      -0.809     -0.5156
#>  8  -1.5837   0.457       0.283       1.320      -0.613     -0.0891
#>  9  -0.7957  -0.412      -0.669      -1.168      -0.845     -0.9258
#> 10   0.0363  -0.638      -0.535       0.182      -0.555     -0.0253
#> # ... with 1,000 more rows, and 52 more variables:
#> #   ConvexHullAreaRatioCh1 <dbl>, ConvexHullPerimRatioCh1 <dbl>,
#> #   DiffIntenDensityCh1 <dbl>, DiffIntenDensityCh3 <dbl>,
#> #   DiffIntenDensityCh4 <dbl>, EntropyIntenCh1 <dbl>,
#> #   EntropyIntenCh3 <dbl>, EntropyIntenCh4 <dbl>, EqCircDiamCh1 <dbl>,
#> #   EqEllipseLWRCh1 <dbl>, EqEllipseOblateVolCh1 <dbl>,
#> #   EqEllipseProlateVolCh1 <dbl>, EqSphereAreaCh1 <dbl>,
#> #   EqSphereVolCh1 <dbl>, FiberAlign2Ch3 <dbl>, FiberAlign2Ch4 <dbl>,
#> #   FiberLengthCh1 <dbl>, FiberWidthCh1 <dbl>, IntenCoocASMCh3 <dbl>,
…
